{"content":[],"last":true,"totalElements":82762,"totalPages":2759,"sort":[{"direction":"DESC","property":"_id","ignoreCase":false,"nullHandling":"NATIVE","ascending":false}],"first":false,"numberOfElements":0,"size":30,"number":2759}
