{"content":[{"address":null,"addressResolution":null,"altitude":"Treetop","city":"Solitude","country":"United States","county":null,"created":null,"deleted":false,"description":null,"detailedDescription":"Submitted by razor via e-mail...Information from witness narrative incorporated in investigators notes fieldbelow.","distance":"101-500 Feet","duration":"00:10:00","entityEncountered":false,"favorited":0,"features":"","flightPath":"Stationary","formattedAddress":null,"id":22,"landingOccurred":false,"latitude":38.0147666,"location":null,"logNumber":"880706","longitude":-87.8989163,"occurred":144474600000,"potentialRelations":[],"rating":"Unrated","region":"Indiana","reportedWeather":null,"shape":"Oval","source":"MUFON","status":null,"submitted":144474600000,"summary":"880706 ce1 in dark elli","tags":["none"],"timeZone":null,"timeZoneName":"","tweeted":0,"urls":null,"weather":null,"zipcode":"","daysBetweenOccurrenceAndSubmission":-1,"locationName":"Solitude, Indiana","triangle":false,"type":"UFO Sighting","$$hashKey":"object:8312"},{"address":null,"addressResolution":null,"altitude":"Unknown","city":"Loxley","country":"United States","county":null,"created":null,"deleted":false,"description":null,"detailedDescription":"Submitted by razor via e-mail...Information from witness narrative incorporated in investigators notes fieldbelow.","distance":"Over One Mile","duration":"00:10:00","entityEncountered":false,"favorited":0,"features":"","flightPath":"Straight-line path","formattedAddress":null,"id":21,"landingOccurred":false,"latitude":30.6182476,"location":null,"logNumber":"880704","longitude":-87.7530454,"occurred":574326600000,"potentialRelations":[],"rating":"Unrated","region":"Alabama","reportedWeather":null,"shape":"","source":"MUFON","status":null,"submitted":574326600000,"summary":"880704 fb1 al unk star","tags":["none"],"timeZone":null,"timeZoneName":"","tweeted":0,"urls":null,"weather":null,"zipcode":"","daysBetweenOccurrenceAndSubmission":-1,"locationName":"Loxley, Alabama","triangle":false,"type":"UFO Sighting","$$hashKey":"object:8313"},{"address":null,"addressResolution":null,"altitude":"Unknown","city":"Atmore","country":"United States","county":null,"created":null,"deleted":false,"description":null,"detailedDescription":"Submitted by razor via e-mail...Information from witness narrative incorporated in investigators notes fieldbelow.","distance":"Unknown","duration":"00:30:00","entityEncountered":false,"favorited":0,"features":"","flightPath":"Unknown","formattedAddress":null,"id":20,"landingOccurred":false,"latitude":31.0237921,"location":null,"logNumber":"880703","longitude":-87.4938708,"occurred":574326000000,"potentialRelations":[],"rating":"Unrated","region":"Alabama","reportedWeather":null,"shape":"","source":"MUFON","status":null,"submitted":574326000000,"summary":"880703 an1 al unk star","tags":["none"],"timeZone":null,"timeZoneName":"","tweeted":0,"urls":null,"weather":null,"zipcode":"","daysBetweenOccurrenceAndSubmission":-1,"locationName":"Atmore, Alabama","triangle":false,"type":"UFO Sighting","$$hashKey":"object:8314"},{"address":null,"addressResolution":null,"altitude":"Unknown","city":"Foley","country":"United States","county":null,"created":null,"deleted":false,"description":null,"detailedDescription":"Submitted by razor via e-mail...Information from witness narrative incorporated in investigators notes fieldbelow.","distance":"501 Feet - 1 Mile","duration":"00:00:59","entityEncountered":false,"favorited":0,"features":"","flightPath":"Unknown","formattedAddress":null,"id":19,"landingOccurred":false,"latitude":30.4065868,"location":null,"logNumber":"880702","longitude":-87.6835974,"occurred":571206600000,"potentialRelations":[],"rating":"Unrated","region":"Alabama","reportedWeather":null,"shape":"Other","source":"MUFON","status":null,"submitted":571206600000,"summary":"880702 ma1 al glow oth","tags":["none"],"timeZone":null,"timeZoneName":"","tweeted":0,"urls":null,"weather":null,"zipcode":"","daysBetweenOccurrenceAndSubmission":-1,"locationName":"Foley, Alabama","triangle":false,"type":"UFO Sighting","$$hashKey":"object:8315"},{"address":null,"addressResolution":null,"altitude":"Unknown","city":"Beavercreek","country":"United States","county":null,"created":null,"deleted":false,"description":null,"detailedDescription":"Submitted by razor via e-mail...Information from witness narrative incorporated in investigators notes fieldbelow.","distance":"Over One Mile","duration":"00:30:00","entityEncountered":false,"favorited":0,"features":"Other","flightPath":"Straight-line path","formattedAddress":null,"id":18,"landingOccurred":false,"latitude":39.7092262,"location":null,"logNumber":"880601","longitude":-84.0632685,"occurred":578979600000,"potentialRelations":[],"rating":"Unrated","region":"Ohio","reportedWeather":null,"shape":"Cylinder","source":"MUFON","status":null,"submitted":578979600000,"summary":"880601 fb1 oh dark cyl","tags":["none"],"timeZone":null,"timeZoneName":"","tweeted":0,"urls":null,"weather":null,"zipcode":"","daysBetweenOccurrenceAndSubmission":-1,"locationName":"Beavercreek, Ohio","triangle":false,"type":"UFO Sighting","$$hashKey":"object:8316"},{"address":null,"addressResolution":null,"altitude":"Treetop","city":"Gulf Breeze","country":"United States","county":null,"created":null,"deleted":false,"description":null,"detailedDescription":"Submitted by razor via e-mail...Information from witness narrative incorporated in investigators notes fieldbelow.","distance":"101-500 Feet","duration":"00:05:00","entityEncountered":false,"favorited":0,"features":"","flightPath":"Stationary","formattedAddress":null,"id":17,"landingOccurred":false,"latitude":30.3571438,"location":null,"logNumber":"880501","longitude":-87.1638574,"occurred":578293200000,"potentialRelations":[],"rating":"Unrated","region":"Florida","reportedWeather":null,"shape":"Sphere","source":"MUFON","status":null,"submitted":578293200000,"summary":"880501 ce1 fl dull sph","tags":["none"],"timeZone":null,"timeZoneName":"","tweeted":0,"urls":null,"weather":null,"zipcode":"","daysBetweenOccurrenceAndSubmission":-1,"locationName":"Gulf Breeze, Florida","triangle":false,"type":"UFO Sighting","$$hashKey":"object:8317"},{"address":null,"addressResolution":null,"altitude":"Treetop","city":"Bay Port","country":"United States","county":null,"created":null,"deleted":false,"description":null,"detailedDescription":"Submitted by razor via e-mail...Information from witness narrative incorporated in investigators notes fieldbelow.","distance":"21-100 Feet","duration":"01:00:00","entityEncountered":false,"favorited":0,"features":"","flightPath":"Stationary","formattedAddress":null,"id":16,"landingOccurred":false,"latitude":43.84607,"location":null,"logNumber":"880410","longitude":-83.37454,"occurred":531377100000,"potentialRelations":[],"rating":"Unrated","region":"Michigan","reportedWeather":null,"shape":"Other","source":"MUFON","status":null,"submitted":531377100000,"summary":"880410 ce1 mi glow oth","tags":["none"],"timeZone":null,"timeZoneName":"","tweeted":0,"urls":null,"weather":null,"zipcode":"","daysBetweenOccurrenceAndSubmission":-1,"locationName":"Bay Port, Michigan","triangle":false,"type":"UFO Sighting","$$hashKey":"object:8318"},{"address":null,"addressResolution":null,"altitude":"Unknown","city":"Seattle","country":"United States","county":null,"created":null,"deleted":false,"description":null,"detailedDescription":null,"distance":"501 Feet - 1 Mile","duration":"00:00:59","entityEncountered":false,"favorited":0,"features":"","flightPath":"Unknown","formattedAddress":null,"id":15,"landingOccurred":false,"latitude":47.6062095,"location":null,"logNumber":"880307","longitude":-122.3320708,"occurred":573629400000,"potentialRelations":[],"rating":"Unrated","region":"Washington","reportedWeather":null,"shape":"Oval","source":"MUFON","status":null,"submitted":573629400000,"summary":"880307 ma1 wa glow oval","tags":["none"],"timeZone":null,"timeZoneName":"","tweeted":0,"urls":null,"weather":null,"zipcode":"","daysBetweenOccurrenceAndSubmission":-1,"locationName":"Seattle, Washington","triangle":false,"type":"UFO Sighting","$$hashKey":"object:8319"},{"address":null,"addressResolution":null,"altitude":"Unknown","city":"Wytheville","country":"United States","county":null,"created":null,"deleted":false,"description":null,"detailedDescription":"Submitted by razor via e-mail...Information from witness narrative incorporated in investigators notes fieldbelow.","distance":"Over One Mile","duration":"00:05:00","entityEncountered":false,"favorited":0,"features":"","flightPath":"Straight-line path","formattedAddress":null,"id":14,"landingOccurred":false,"latitude":36.9558128,"location":null,"logNumber":"880305b","longitude":-81.075191,"occurred":565501500000,"potentialRelations":[],"rating":"Unrated","region":"Virginia","reportedWeather":null,"shape":"Disc","source":"MUFON","status":null,"submitted":565501500000,"summary":"880305b fb1 va glow disc","tags":["none"],"timeZone":null,"timeZoneName":"","tweeted":0,"urls":null,"weather":null,"zipcode":"","daysBetweenOccurrenceAndSubmission":-1,"locationName":"Wytheville, Virginia","triangle":false,"type":"UFO Sighting","$$hashKey":"object:8320"},{"address":null,"addressResolution":null,"altitude":"Unknown","city":"Wytheville","country":"United States","county":null,"created":null,"deleted":false,"description":null,"detailedDescription":"Submitted by razor via e-mail...Information from witness narrative incorporated in investigators notes fieldbelow.","distance":"501 Feet - 1 Mile","duration":"00:05:00","entityEncountered":false,"favorited":0,"features":"Window(s)","flightPath":"Straight-line path","formattedAddress":null,"id":13,"landingOccurred":false,"latitude":36.9484528,"location":null,"logNumber":"880305a","longitude":-81.084811,"occurred":561872700000,"potentialRelations":[],"rating":"Unrated","region":"Virginia","reportedWeather":null,"shape":"Sphere","source":"MUFON","status":null,"submitted":561872700000,"summary":"880305a ma1 va glow oth sph","tags":["none"],"timeZone":null,"timeZoneName":"","tweeted":0,"urls":null,"weather":null,"zipcode":"","daysBetweenOccurrenceAndSubmission":-1,"locationName":"Wytheville, Virginia","triangle":false,"type":"UFO Sighting","$$hashKey":"object:8321"},{"address":null,"addressResolution":null,"altitude":"Treetop","city":"Irwin","country":"United States","county":null,"created":null,"deleted":false,"description":null,"detailedDescription":"Submitted by razor via e-mail...Information from witness narrative incorporated in investigators notes fieldbelow.","distance":"501 Feet - 1 Mile","duration":"00:30:00","entityEncountered":false,"favorited":0,"features":"","flightPath":"Stationary","formattedAddress":null,"id":12,"landingOccurred":false,"latitude":40.3245138,"location":null,"logNumber":"880302","longitude":-79.7011549,"occurred":572593500000,"potentialRelations":[],"rating":"Unrated","region":"Pennsylvania","reportedWeather":null,"shape":"Disc","source":"MUFON","status":null,"submitted":572593500000,"summary":"880302 ma1 pa mist disc","tags":["none"],"timeZone":null,"timeZoneName":"","tweeted":0,"urls":null,"weather":null,"zipcode":"","daysBetweenOccurrenceAndSubmission":-1,"locationName":"Irwin, Pennsylvania","triangle":false,"type":"UFO Sighting","$$hashKey":"object:8322"},{"address":null,"addressResolution":null,"altitude":"500 Feet or Less","city":"Shreve","country":"United States","county":null,"created":null,"deleted":false,"description":null,"detailedDescription":"Submitted by razor via e-mail...Information from witness narrative incorporated in investigators notes fieldbelow.","distance":"501 Feet - 1 Mile","duration":"00:30:00","entityEncountered":false,"favorited":0,"features":"","flightPath":"Unknown","formattedAddress":null,"id":11,"landingOccurred":false,"latitude":40.6814481,"location":null,"logNumber":"880209","longitude":-82.0218148,"occurred":564726300000,"potentialRelations":[],"rating":"Unrated","region":"Ohio","reportedWeather":null,"shape":"Other","source":"MUFON","status":null,"submitted":564726300000,"summary":"880209 ma1 oh glow oth","tags":["none"],"timeZone":null,"timeZoneName":"","tweeted":0,"urls":null,"weather":null,"zipcode":"","daysBetweenOccurrenceAndSubmission":-1,"locationName":"Shreve, Ohio","triangle":false,"type":"UFO Sighting","$$hashKey":"object:8323"},{"address":null,"addressResolution":null,"altitude":"Landed","city":"Battle Creek","country":"United States","county":null,"created":null,"deleted":false,"description":null,"detailedDescription":"Submitted by razor via e-mail...Information from witness narrative incorporated in investigators notes fieldbelow.","distance":"Unknown","duration":"00:00:59","entityEncountered":false,"favorited":0,"features":"","flightPath":"Stationary","formattedAddress":null,"id":10,"landingOccurred":false,"latitude":42.3211522,"location":null,"logNumber":"880207","longitude":-85.1797142,"occurred":560249100000,"potentialRelations":[],"rating":"Unrated","region":"Michigan","reportedWeather":null,"shape":"","source":"MUFON","status":null,"submitted":560249100000,"summary":"880207 ma1 mi unk star","tags":["none"],"timeZone":null,"timeZoneName":"","tweeted":0,"urls":null,"weather":null,"zipcode":"","daysBetweenOccurrenceAndSubmission":-1,"locationName":"Battle Creek, Michigan","triangle":false,"type":"UFO Sighting","$$hashKey":"object:8324"},{"address":null,"addressResolution":null,"altitude":"Treetop","city":"Mossbank","country":"Canada","county":null,"created":null,"deleted":false,"description":null,"detailedDescription":"Submitted by razor via e-mail...Information from witness narrative incorporated in investigators notes fieldbelow.","distance":"21-100 Feet","duration":"00:00:59","entityEncountered":false,"favorited":0,"features":"","flightPath":"Straight-line path","formattedAddress":null,"id":9,"landingOccurred":false,"latitude":49.939867,"location":null,"logNumber":"880101a","longitude":-105.964409,"occurred":542690520000,"potentialRelations":[],"rating":"Unrated","region":"Saskatchewan","reportedWeather":null,"shape":"Bullet,  Missile","source":"MUFON","status":null,"submitted":542690520000,"summary":"880101a ce1 sk refl bul","tags":["none"],"timeZone":null,"timeZoneName":"","tweeted":0,"urls":null,"weather":null,"zipcode":"","daysBetweenOccurrenceAndSubmission":-1,"locationName":"Mossbank, Saskatchewan","triangle":false,"type":"UFO Sighting","$$hashKey":"object:8325"},{"address":null,"addressResolution":null,"altitude":"Treetop","city":"Depoe Bay","country":"United States","county":null,"created":null,"deleted":false,"description":null,"detailedDescription":"Submitted by razor via e-mail...Information from witness narrative incorporated in investigators notes fieldbelow.","distance":"501 Feet - 1 Mile","duration":"00:05:00","entityEncountered":false,"favorited":0,"features":"","flightPath":"Straight-line path","formattedAddress":null,"id":8,"landingOccurred":false,"latitude":44.8165067,"location":null,"logNumber":"850304Sb","longitude":-124.0608013,"occurred":747293580000,"potentialRelations":[],"rating":"Unrated","region":"Oregon","reportedWeather":null,"shape":"Sphere","source":"MUFON","status":null,"submitted":747293580000,"summary":"850304sb ce1 or glow sph","tags":["none"],"timeZone":null,"timeZoneName":"","tweeted":0,"urls":null,"weather":null,"zipcode":"","daysBetweenOccurrenceAndSubmission":-1,"locationName":"Depoe Bay, Oregon","triangle":false,"type":"UFO Sighting","$$hashKey":"object:8326"},{"address":null,"addressResolution":null,"altitude":"Landed","city":"Depoe Bay","country":"United States","county":null,"created":null,"deleted":false,"description":null,"detailedDescription":"Submitted by razor via e-mail...Information from witness narrative incorporated in investigators notes fieldbelow.","distance":"501 Feet - 1 Mile","duration":"00:05:00","entityEncountered":false,"favorited":0,"features":"","flightPath":"Unknown","formattedAddress":null,"id":7,"landingOccurred":false,"latitude":44.8084467,"location":null,"logNumber":"850304Sa","longitude":-124.0631713,"occurred":747289800000,"potentialRelations":[],"rating":"Unrated","region":"Oregon","reportedWeather":null,"shape":"Oval","source":"MUFON","status":null,"submitted":747289800000,"summary":"850304sa ma1 or glow oval","tags":["none"],"timeZone":null,"timeZoneName":"","tweeted":0,"urls":null,"weather":null,"zipcode":"","daysBetweenOccurrenceAndSubmission":-1,"locationName":"Depoe Bay, Oregon","triangle":false,"type":"UFO Sighting","$$hashKey":"object:8327"},{"address":null,"addressResolution":null,"altitude":"500 Feet or Less","city":"Elk River","country":"United States","county":null,"created":null,"deleted":false,"description":null,"detailedDescription":"Submitted by razor via e-mail...Information from witness narrative incorporated in investigators notes fieldbelow.","distance":"101-500 Feet","duration":"00:05:00","entityEncountered":false,"favorited":0,"features":"Dome,  Other","flightPath":"Unknown","formattedAddress":null,"id":6,"landingOccurred":false,"latitude":45.3172222,"location":null,"logNumber":"120592C","longitude":-93.5811111,"occurred":716628600000,"potentialRelations":[],"rating":"Unrated","region":"Minnesota","reportedWeather":null,"shape":"Disc","source":"MUFON","status":null,"submitted":716628600000,"summary":"120592c ce1 mn dull disc","tags":["none"],"timeZone":null,"timeZoneName":"","tweeted":0,"urls":null,"weather":null,"zipcode":"","daysBetweenOccurrenceAndSubmission":-1,"locationName":"Elk River, Minnesota","triangle":false,"type":"UFO Sighting","$$hashKey":"object:8328"},{"address":null,"addressResolution":null,"altitude":"500 Feet or Less","city":"Otsego","country":"United States","county":null,"created":null,"deleted":false,"description":null,"detailedDescription":"Submitted by razor via e-mail...Information from witness narrative incorporated in investigators notes fieldbelow.","distance":"501 Feet - 1 Mile","duration":"00:05:00","entityEncountered":false,"favorited":0,"features":"","flightPath":"Unknown","formattedAddress":null,"id":5,"landingOccurred":false,"latitude":45.2741314,"location":null,"logNumber":"120492C","longitude":-93.5913501,"occurred":719156700000,"potentialRelations":[],"rating":"Unrated","region":"Minnesota","reportedWeather":null,"shape":"Sphere","source":"MUFON","status":null,"submitted":719156700000,"summary":"120492c fb1 mn glow sph","tags":["none"],"timeZone":null,"timeZoneName":"","tweeted":0,"urls":null,"weather":null,"zipcode":"","daysBetweenOccurrenceAndSubmission":-1,"locationName":"Otsego, Minnesota","triangle":false,"type":"UFO Sighting","$$hashKey":"object:8329"},{"address":null,"addressResolution":null,"altitude":"Unknown","city":"North Branch","country":"United States","county":null,"created":null,"deleted":false,"description":null,"detailedDescription":"Submitted by razor via e-mail...Information from witness narrative incorporated in investigators notes fieldbelow.","distance":"501 Feet - 1 Mile","duration":"00:00:59","entityEncountered":false,"favorited":0,"features":"Dome","flightPath":"Stationary","formattedAddress":null,"id":4,"landingOccurred":false,"latitude":45.509521,"location":null,"logNumber":"120392C","longitude":-92.972733,"occurred":665372400000,"potentialRelations":[],"rating":"Unrated","region":"Minnesota","reportedWeather":null,"shape":"Other","source":"MUFON","status":null,"submitted":665372400000,"summary":"120392c ma1 mn unk oth","tags":["none"],"timeZone":null,"timeZoneName":"","tweeted":0,"urls":null,"weather":null,"zipcode":"","daysBetweenOccurrenceAndSubmission":-1,"locationName":"North Branch, Minnesota","triangle":false,"type":"UFO Sighting","$$hashKey":"object:8330"},{"address":null,"addressResolution":null,"altitude":"Unknown","city":"Purcell","country":"United States","county":null,"created":null,"deleted":false,"description":null,"detailedDescription":"Submitted by razor via e-mail...Information from witness narrative incorporated in investigators notes fieldbelow.","distance":"501 Feet - 1 Mile","duration":"00:10:00","entityEncountered":false,"favorited":0,"features":"","flightPath":"Unknown","formattedAddress":null,"id":3,"landingOccurred":false,"latitude":35.0136831,"location":null,"logNumber":"102392C","longitude":-97.3611394,"occurred":712472400000,"potentialRelations":[],"rating":"Unrated","region":"Oklahoma","reportedWeather":null,"shape":"Oval","source":"MUFON","status":null,"submitted":712472400000,"summary":"102392c ma1 ok dull oval","tags":["none"],"timeZone":null,"timeZoneName":"","tweeted":0,"urls":null,"weather":null,"zipcode":"","daysBetweenOccurrenceAndSubmission":-1,"locationName":"Purcell, Oklahoma","triangle":false,"type":"UFO Sighting","$$hashKey":"object:8331"},{"address":null,"addressResolution":null,"altitude":"Unknown","city":"Scandia","country":"United States","county":null,"created":null,"deleted":false,"description":null,"detailedDescription":"Submitted by razor via e-mail...Information from witness narrative incorporated in investigators notes fieldbelow.","distance":"Over One Mile","duration":"00:00:59","entityEncountered":false,"favorited":0,"features":"","flightPath":"Straight-line path","formattedAddress":null,"id":2,"landingOccurred":false,"latitude":45.2535777,"location":null,"logNumber":"101992C","longitude":-92.8057669,"occurred":714228300000,"potentialRelations":[],"rating":"Unrated","region":"Minnesota","reportedWeather":null,"shape":"Cylinder","source":"MUFON","status":null,"submitted":714228300000,"summary":"101992c fb1 mn dark cyl","tags":["none"],"timeZone":null,"timeZoneName":"","tweeted":0,"urls":null,"weather":null,"zipcode":"","daysBetweenOccurrenceAndSubmission":-1,"locationName":"Scandia, Minnesota","triangle":false,"type":"UFO Sighting","$$hashKey":"object:8332"},{"address":null,"addressResolution":null,"altitude":"500 Feet or Less","city":"Glen Mawr","country":"United States","county":null,"created":null,"deleted":false,"description":null,"detailedDescription":"Submitted by razor via e-mail...Information from witness narrative incorporated in investigators notes fieldbelow.","distance":"501 Feet - 1 Mile","duration":"00:10:00","entityEncountered":false,"favorited":0,"features":"","flightPath":"Stationary","formattedAddress":null,"id":1,"landingOccurred":false,"latitude":41.3136915,"location":null,"logNumber":"030502E","longitude":-76.6532868,"occurred":720184800000,"potentialRelations":[],"rating":"Unrated","region":"Pennsylvania","reportedWeather":null,"shape":"Other","source":"MUFON","status":null,"submitted":720184800000,"summary":"030502e ma2 pa dull oth","tags":["none"],"timeZone":null,"timeZoneName":"","tweeted":0,"urls":null,"weather":null,"zipcode":"","daysBetweenOccurrenceAndSubmission":-1,"locationName":"Glen Mawr, Pennsylvania","triangle":false,"type":"UFO Sighting","$$hashKey":"object:8333"}],"last":true,"totalElements":82762,"totalPages":2759,"sort":[{"direction":"DESC","property":"_id","ignoreCase":false,"nullHandling":"NATIVE","ascending":false}],"first":false,"numberOfElements":22,"size":30,"number":2758}
